{
    "AF": "en",
    "AX": "sv",
    "AL": "sq",
    "DZ": "fr",
    "AS": "en",
    "AD": "es",
    "AO": "pt",
    "AI": "en",
    "AQ": "en",
    "AG": "en",
    "AR": "es",
    "AM": "ru",
    "AW": "nl",
    "AC": "en",
    "AU": "en",
    "AT": "de",
    "AZ": "ru",
    "BS": "en",
    "BH": "ar",
    "BD": "en",
    "BB": "en",
    "BY": "ru",
    "BE": "nl",
    "BZ": "en",
    "BJ": "fr",
    "BM": "en",
    "BT": "en",
    "BO": "es",
    "BA": "bs",
    "BW": "en",
    "BR": "pt",
    "IO": "en",
    "VG": "en",
    "BN": "ms",
    "BG": "bg",
    "BF": "fr",
    "BI": "fr",
    "KH": "fr",
    "CM": "fr",
    "CA": "en",
    "IC": "es",
    "CV": "pt",
    "BQ": "nl",
    "KY": "en",
    "CF": "fr",
    "EA": "es",
    "TD": "fr",
    "CL": "es",
    "CN": "zh",
    "CX": "en",
    "CC": "en",
    "CO": "es",
    "KM": "fr",
    "CG": "fr",
    "CD": "fr",
    "CK": "en",
    "CR": "es",
    "CI": "fr",
    "HR": "hr",
    "CU": "es",
    "CW": "nl",
    "CY": "el",
    "CZ": "cs",
    "DK": "da",
    "DG": "en",
    "DJ": "fr",
    "DM": "en",
    "DO": "es",
    "EC": "es",
    "EG": "ar",
    "SV": "es",
    "GQ": "es",
    "ER": "en",
    "EE": "et",
    "SZ": "en",
    "ET": "en",
    "FK": "en",
    "FO": "da",
    "FJ": "en",
    "FI": "fi",
    "FR": "fr",
    "GF": "fr",
    "PF": "fr",
    "TF": "fr",
    "GA": "fr",
    "GM": "en",
    "GE": "ru",
    "DE": "de",
    "GH": "en",
    "GI": "en",
    "GR": "el",
    "GL": "da",
    "GD": "en",
    "GP": "fr",
    "GU": "en",
    "GT": "es",
    "GG": "en",
    "GN": "fr",
    "GW": "pt",
    "GY": "en",
    "HT": "fr",
    "HN": "es",
    "HK": "zh-TW",
    "HU": "hu",
    "IS": "en",
    "IN": "en",
    "ID": "id",
    "IR": "en",
    "IQ": "ar",
    "IE": "en",
    "IM": "en",
    "IL": "he",
    "IT": "it",
    "JM": "en",
    "JP": "ja",
    "JE": "en",
    "JO": "ar",
    "KZ": "ru",
    "KE": "en",
    "KI": "en",
    "XK": "sq",
    "KW": "ar",
    "KG": "ru",
    "LA": "fr",
    "LV": "lv",
    "LB": "en",
    "LS": "en",
    "LR": "en",
    "LY": "ar",
    "LI": "de",
    "LT": "lt",
    "LU": "fr",
    "MO": "zh-TW",
    "MG": "fr",
    "MW": "en",
    "MY": "ms",
    "MV": "en",
    "ML": "fr",
    "MT": "en",
    "MH": "en",
    "MQ": "fr",
    "MR": "ar",
    "MU": "en",
    "YT": "fr",
    "MX": "es",
    "FM": "en",
    "MD": "ro",
    "MC": "fr",
    "MN": "en",
    "ME": "sr",
    "MS": "en",
    "MA": "fr",
    "MZ": "pt",
    "MM": "en",
    "NA": "en",
    "NR": "en",
    "NP": "en",
    "NL": "nl",
    "NC": "fr",
    "NZ": "en",
    "NI": "es",
    "NE": "fr",
    "NG": "en",
    "NU": "en",
    "NF": "en",
    "KP": "ko",
    "MK": "mk",
    "MP": "en",
    "NO": "nb",
    "OM": "ar",
    "PK": "en",
    "PW": "en",
    "PS": "ar",
    "PA": "es",
    "PG": "en",
    "PY": "es",
    "PE": "es",
    "PH": "tl",
    "PN": "en",
    "PL": "pl",
    "PT": "pt",
    "XA": "en",
    "XB": "en",
    "PR": "es",
    "QA": "ar",
    "RE": "fr",
    "RO": "ro",
    "RU": "ru",
    "RW": "en",
    "WS": "en",
    "SM": "it",
    "ST": "pt",
    "SA": "ar",
    "SN": "fr",
    "RS": "sr",
    "SC": "en",
    "SL": "en",
    "SG": "zh",
    "SX": "nl",
    "SK": "sk",
    "SI": "sl",
    "SB": "en",
    "SO": "ar",
    "ZA": "en",
    "GS": "en",
    "KR": "ko",
    "SS": "ar",
    "ES": "es",
    "LK": "en",
    "BL": "fr",
    "SH": "en",
    "KN": "en",
    "LC": "en",
    "MF": "fr",
    "PM": "fr",
    "VC": "en",
    "SD": "ar",
    "SR": "nl",
    "SJ": "nb",
    "SE": "sv",
    "CH": "de",
    "SY": "ar",
    "TW": "zh-TW",
    "TJ": "ru",
    "TZ": "en",
    "TH": "th",
    "TL": "pt",
    "TG": "fr",
    "TK": "en",
    "TO": "en",
    "TT": "en",
    "TA": "en",
    "TN": "fr",
    "TR": "tr",
    "TM": "ru",
    "TC": "en",
    "TV": "en",
    "UM": "en",
    "VI": "en",
    "UG": "en",
    "UA": "uk",
    "AE": "ar",
    "GB": "en",
    "US": "en",
    "UY": "es",
    "UZ": "ru",
    "VU": "en",
    "VA": "it",
    "VE": "es",
    "VN": "vi",
    "WF": "fr",
    "EH": "ar",
    "YE": "ar",
    "ZM": "en",
    "ZW": "en"
}